<mxfile host="app.diagrams.net" modified="2021-01-05T08:19:05.522Z" agent="5.0 (Windows NT 10.0; Win64; x64) AppleWebKit/537.36 (KHTML, like Gecko) Chrome/87.0.4280.88 Safari/537.36 Edg/87.0.664.66" etag="hPYZFcWt0q-YrjeBfS_x" version="14.1.4" type="gitlab">
  <diagram id="Mf41-8i1itYDs7zrNqp9" name="Page-1">
    <mxGraphModel dx="2035" dy="1762" grid="1" gridSize="10" guides="1" tooltips="1" connect="1" arrows="1" fold="1" page="1" pageScale="1" pageWidth="850" pageHeight="1100" math="0" shadow="0">
      <root>
        <mxCell id="0" />
        <mxCell id="1" parent="0" />
        <mxCell id="PIh2nSRenUtLftdFd4x1-7" value="Piece" style="swimlane;fontStyle=1;align=center;verticalAlign=top;childLayout=stackLayout;horizontal=1;startSize=26;horizontalStack=0;resizeParent=1;resizeParentMax=0;resizeLast=0;collapsible=1;marginBottom=0;fillColor=#dae8fc;strokeColor=#6c8ebf;" parent="1" vertex="1">
          <mxGeometry x="-130" y="-780" width="400" height="240" as="geometry" />
        </mxCell>
        <mxCell id="PIh2nSRenUtLftdFd4x1-8" value="# char _color ( &#39;W&#39;, &#39;B&#39;)&#xa;# unsigned int _loc[2]&#xa;# std::string _type&#xa;" style="text;strokeColor=#666666;fillColor=#f5f5f5;align=left;verticalAlign=top;spacingLeft=4;spacingRight=4;overflow=hidden;rotatable=0;points=[[0,0.5],[1,0.5]];portConstraint=eastwest;fontColor=#333333;" parent="PIh2nSRenUtLftdFd4x1-7" vertex="1">
          <mxGeometry y="26" width="400" height="64" as="geometry" />
        </mxCell>
        <mxCell id="PIh2nSRenUtLftdFd4x1-9" value="" style="line;strokeWidth=1;fillColor=none;align=left;verticalAlign=middle;spacingTop=-1;spacingLeft=3;spacingRight=3;rotatable=0;labelPosition=right;points=[];portConstraint=eastwest;" parent="PIh2nSRenUtLftdFd4x1-7" vertex="1">
          <mxGeometry y="90" width="400" height="8" as="geometry" />
        </mxCell>
        <mxCell id="PIh2nSRenUtLftdFd4x1-10" value="+ piece( std::string _type, unsigned int _loc[], char _color)&#xa;+ piece( const Piece&amp; pie ) &#xa;+ virtual ~piece()&#xa;&#xa;+ char getColor() const&#xa;+ unsigned int* getLoc() const&#xa;+ std::string getType() const&#xa;+ virtual bool check_valid (char** board ,unsigned int [] new_loc) = 0&#xa;+ friend std::ostream&amp; operator&lt;&lt;(std::ostream&amp; os, const Piece&amp; pie);" style="text;strokeColor=#666666;fillColor=#f5f5f5;align=left;verticalAlign=top;spacingLeft=4;spacingRight=4;overflow=hidden;rotatable=0;points=[[0,0.5],[1,0.5]];portConstraint=eastwest;fontColor=#333333;" parent="PIh2nSRenUtLftdFd4x1-7" vertex="1">
          <mxGeometry y="98" width="400" height="142" as="geometry" />
        </mxCell>
        <mxCell id="PIh2nSRenUtLftdFd4x1-42" value="Board" style="swimlane;fontStyle=1;align=center;verticalAlign=top;childLayout=stackLayout;horizontal=1;startSize=26;horizontalStack=0;resizeParent=1;resizeParentMax=0;resizeLast=0;collapsible=1;marginBottom=0;fillColor=#f8cecc;strokeColor=#b85450;" parent="1" vertex="1">
          <mxGeometry x="470" y="-890" width="340" height="240" as="geometry" />
        </mxCell>
        <mxCell id="PIh2nSRenUtLftdFd4x1-43" value="- Piece* slots[8][8]" style="text;align=left;verticalAlign=top;spacingLeft=4;spacingRight=4;overflow=hidden;rotatable=0;points=[[0,0.5],[1,0.5]];portConstraint=eastwest;fillColor=#f5f5f5;strokeColor=#666666;fontColor=#333333;" parent="PIh2nSRenUtLftdFd4x1-42" vertex="1">
          <mxGeometry y="26" width="340" height="26" as="geometry" />
        </mxCell>
        <mxCell id="PIh2nSRenUtLftdFd4x1-44" value="" style="line;strokeWidth=1;fillColor=none;align=left;verticalAlign=middle;spacingTop=-1;spacingLeft=3;spacingRight=3;rotatable=0;labelPosition=right;points=[];portConstraint=eastwest;" parent="PIh2nSRenUtLftdFd4x1-42" vertex="1">
          <mxGeometry y="52" width="340" height="8" as="geometry" />
        </mxCell>
        <mxCell id="PIh2nSRenUtLftdFd4x1-45" value="+ board()&#xa;+ virtual ~board ()&#xa;&#xa;+ void printBoard()&#xa;+ void fillEmpty()&#xa;&#xa;+ void push(Piece* pie)&#xa;+ void move(unsigned int*, unsigned int* )" style="text;strokeColor=#666666;fillColor=#f5f5f5;align=left;verticalAlign=top;spacingLeft=4;spacingRight=4;overflow=hidden;rotatable=0;points=[[0,0.5],[1,0.5]];portConstraint=eastwest;fontColor=#333333;" parent="PIh2nSRenUtLftdFd4x1-42" vertex="1">
          <mxGeometry y="60" width="340" height="180" as="geometry" />
        </mxCell>
        <mxCell id="C0rQKkw-dcJEjptPGMge-50" value="Game&#xa;" style="swimlane;fontStyle=1;align=center;verticalAlign=top;childLayout=stackLayout;horizontal=1;startSize=26;horizontalStack=0;resizeParent=1;resizeParentMax=0;resizeLast=0;collapsible=1;marginBottom=0;fillColor=#e1d5e7;strokeColor=#9673a6;" parent="1" vertex="1">
          <mxGeometry x="220" y="-1090" width="180" height="198" as="geometry" />
        </mxCell>
        <mxCell id="C0rQKkw-dcJEjptPGMge-51" value="-  Board _brd&#xa;- Piece* _wPieces[16]&#xa;- Piece* _bPieces[16]" style="text;strokeColor=#666666;fillColor=#f5f5f5;align=left;verticalAlign=top;spacingLeft=4;spacingRight=4;overflow=hidden;rotatable=0;points=[[0,0.5],[1,0.5]];portConstraint=eastwest;fontColor=#333333;" parent="C0rQKkw-dcJEjptPGMge-50" vertex="1">
          <mxGeometry y="26" width="180" height="64" as="geometry" />
        </mxCell>
        <mxCell id="C0rQKkw-dcJEjptPGMge-52" value="" style="line;strokeWidth=1;fillColor=none;align=left;verticalAlign=middle;spacingTop=-1;spacingLeft=3;spacingRight=3;rotatable=0;labelPosition=right;points=[];portConstraint=eastwest;" parent="C0rQKkw-dcJEjptPGMge-50" vertex="1">
          <mxGeometry y="90" width="180" height="8" as="geometry" />
        </mxCell>
        <mxCell id="C0rQKkw-dcJEjptPGMge-53" value="+ game ()&#xa;+ ~game ()&#xa;+ Board&amp; getBoard() const&#xa;+ Piece** getWPieces() const&#xa;+ Piece** getBPieces() const" style="text;strokeColor=#666666;fillColor=#f5f5f5;align=left;verticalAlign=top;spacingLeft=4;spacingRight=4;overflow=hidden;rotatable=0;points=[[0,0.5],[1,0.5]];portConstraint=eastwest;fontColor=#333333;" parent="C0rQKkw-dcJEjptPGMge-50" vertex="1">
          <mxGeometry y="98" width="180" height="100" as="geometry" />
        </mxCell>
        <mxCell id="C0rQKkw-dcJEjptPGMge-60" value="" style="endArrow=diamondThin;endFill=0;endSize=24;html=1;strokeColor=#999999;exitX=1;exitY=0.5;exitDx=0;exitDy=0;entryX=0.5;entryY=0;entryDx=0;entryDy=0;" parent="1" source="C0rQKkw-dcJEjptPGMge-51" target="PIh2nSRenUtLftdFd4x1-42" edge="1">
          <mxGeometry width="160" relative="1" as="geometry">
            <mxPoint x="480" y="-991.5" as="sourcePoint" />
            <mxPoint x="640" y="-991.5" as="targetPoint" />
            <Array as="points">
              <mxPoint x="640" y="-1032" />
            </Array>
          </mxGeometry>
        </mxCell>
        <mxCell id="C0rQKkw-dcJEjptPGMge-62" value="" style="endArrow=diamondThin;endFill=0;endSize=24;html=1;strokeColor=#999999;exitX=0;exitY=0.5;exitDx=0;exitDy=0;" parent="1" source="C0rQKkw-dcJEjptPGMge-51" edge="1">
          <mxGeometry width="160" relative="1" as="geometry">
            <mxPoint x="30" y="-1010" as="sourcePoint" />
            <mxPoint x="90" y="-781" as="targetPoint" />
            <Array as="points">
              <mxPoint x="80" y="-1032" />
            </Array>
          </mxGeometry>
        </mxCell>
        <mxCell id="C0rQKkw-dcJEjptPGMge-64" value="" style="endArrow=diamondThin;endFill=0;endSize=24;html=1;strokeColor=#999999;exitX=0;exitY=0.5;exitDx=0;exitDy=0;entryX=0.75;entryY=0;entryDx=0;entryDy=0;" parent="1" source="PIh2nSRenUtLftdFd4x1-43" target="PIh2nSRenUtLftdFd4x1-7" edge="1">
          <mxGeometry width="160" relative="1" as="geometry">
            <mxPoint x="265" y="-830" as="sourcePoint" />
            <mxPoint x="425" y="-830" as="targetPoint" />
            <Array as="points">
              <mxPoint x="163" y="-851" />
            </Array>
          </mxGeometry>
        </mxCell>
        <mxCell id="rGl_JN0OdRbyzCC-766T-3" value="rook" style="swimlane;fontStyle=1;align=center;verticalAlign=top;childLayout=stackLayout;horizontal=1;startSize=26;horizontalStack=0;resizeParent=1;resizeParentMax=0;resizeLast=0;collapsible=1;marginBottom=0;fillColor=#ffe6cc;strokeColor=#d79b00;" parent="1" vertex="1">
          <mxGeometry x="480" y="-360" width="290" height="148" as="geometry" />
        </mxCell>
        <mxCell id="rGl_JN0OdRbyzCC-766T-4" value="# char _color ( &#39;W&#39;, &#39;B&#39;)&#xa;# unsigned int _loc[2]&#xa;# std::string _type&#xa;" style="text;strokeColor=none;fillColor=none;align=left;verticalAlign=top;spacingLeft=4;spacingRight=4;overflow=hidden;rotatable=0;points=[[0,0.5],[1,0.5]];portConstraint=eastwest;" parent="rGl_JN0OdRbyzCC-766T-3" vertex="1">
          <mxGeometry y="26" width="290" height="54" as="geometry" />
        </mxCell>
        <mxCell id="rGl_JN0OdRbyzCC-766T-5" value="" style="line;strokeWidth=1;fillColor=none;align=left;verticalAlign=middle;spacingTop=-1;spacingLeft=3;spacingRight=3;rotatable=0;labelPosition=right;points=[];portConstraint=eastwest;" parent="rGl_JN0OdRbyzCC-766T-3" vertex="1">
          <mxGeometry y="80" width="290" height="8" as="geometry" />
        </mxCell>
        <mxCell id="rGl_JN0OdRbyzCC-766T-6" value="# int check_valid(char** board, int[2] new_loc)&#xa;# rook ()&#xa;# ~rook ()" style="text;strokeColor=none;fillColor=none;align=left;verticalAlign=top;spacingLeft=4;spacingRight=4;overflow=hidden;rotatable=0;points=[[0,0.5],[1,0.5]];portConstraint=eastwest;" parent="rGl_JN0OdRbyzCC-766T-3" vertex="1">
          <mxGeometry y="88" width="290" height="60" as="geometry" />
        </mxCell>
        <mxCell id="rGl_JN0OdRbyzCC-766T-7" value="king" style="swimlane;fontStyle=1;align=center;verticalAlign=top;childLayout=stackLayout;horizontal=1;startSize=26;horizontalStack=0;resizeParent=1;resizeParentMax=0;resizeLast=0;collapsible=1;marginBottom=0;fillColor=#ffe6cc;strokeColor=#d79b00;" parent="1" vertex="1">
          <mxGeometry x="190" y="-360" width="270" height="148" as="geometry" />
        </mxCell>
        <mxCell id="rGl_JN0OdRbyzCC-766T-8" value="# char _color ( &#39;W&#39;, &#39;B&#39;)&#xa;# unsigned int _loc[2]&#xa;# std::string _type&#xa;" style="text;strokeColor=none;fillColor=none;align=left;verticalAlign=top;spacingLeft=4;spacingRight=4;overflow=hidden;rotatable=0;points=[[0,0.5],[1,0.5]];portConstraint=eastwest;" parent="rGl_JN0OdRbyzCC-766T-7" vertex="1">
          <mxGeometry y="26" width="270" height="54" as="geometry" />
        </mxCell>
        <mxCell id="rGl_JN0OdRbyzCC-766T-9" value="" style="line;strokeWidth=1;fillColor=none;align=left;verticalAlign=middle;spacingTop=-1;spacingLeft=3;spacingRight=3;rotatable=0;labelPosition=right;points=[];portConstraint=eastwest;" parent="rGl_JN0OdRbyzCC-766T-7" vertex="1">
          <mxGeometry y="80" width="270" height="8" as="geometry" />
        </mxCell>
        <mxCell id="rGl_JN0OdRbyzCC-766T-10" value="# int check_valid(char** board, int[2] new_loc)&#xa;# king ()&#xa;# ~king ()" style="text;strokeColor=none;fillColor=none;align=left;verticalAlign=top;spacingLeft=4;spacingRight=4;overflow=hidden;rotatable=0;points=[[0,0.5],[1,0.5]];portConstraint=eastwest;" parent="rGl_JN0OdRbyzCC-766T-7" vertex="1">
          <mxGeometry y="88" width="270" height="60" as="geometry" />
        </mxCell>
        <mxCell id="oSaJBiBVaJiEjOHZTSxZ-1" value="Knight" style="swimlane;fontStyle=1;align=center;verticalAlign=top;childLayout=stackLayout;horizontal=1;startSize=26;horizontalStack=0;resizeParent=1;resizeParentMax=0;resizeLast=0;collapsible=1;marginBottom=0;fillColor=#ffe6cc;strokeColor=#d79b00;" vertex="1" parent="1">
          <mxGeometry x="-695" y="-360" width="270" height="148" as="geometry" />
        </mxCell>
        <mxCell id="oSaJBiBVaJiEjOHZTSxZ-2" value="# char _color ( &#39;W&#39;, &#39;B&#39;)&#xa;# unsigned int _loc[2]&#xa;# std::string _type&#xa;" style="text;strokeColor=none;fillColor=none;align=left;verticalAlign=top;spacingLeft=4;spacingRight=4;overflow=hidden;rotatable=0;points=[[0,0.5],[1,0.5]];portConstraint=eastwest;" vertex="1" parent="oSaJBiBVaJiEjOHZTSxZ-1">
          <mxGeometry y="26" width="270" height="54" as="geometry" />
        </mxCell>
        <mxCell id="oSaJBiBVaJiEjOHZTSxZ-3" value="" style="line;strokeWidth=1;fillColor=none;align=left;verticalAlign=middle;spacingTop=-1;spacingLeft=3;spacingRight=3;rotatable=0;labelPosition=right;points=[];portConstraint=eastwest;" vertex="1" parent="oSaJBiBVaJiEjOHZTSxZ-1">
          <mxGeometry y="80" width="270" height="8" as="geometry" />
        </mxCell>
        <mxCell id="oSaJBiBVaJiEjOHZTSxZ-4" value="# int check_valid(char** board, int[2] new_loc)&#xa;# Knight ()&#xa;# ~Knight ()" style="text;strokeColor=none;fillColor=none;align=left;verticalAlign=top;spacingLeft=4;spacingRight=4;overflow=hidden;rotatable=0;points=[[0,0.5],[1,0.5]];portConstraint=eastwest;" vertex="1" parent="oSaJBiBVaJiEjOHZTSxZ-1">
          <mxGeometry y="88" width="270" height="60" as="geometry" />
        </mxCell>
        <mxCell id="oSaJBiBVaJiEjOHZTSxZ-5" value="Bishop" style="swimlane;fontStyle=1;align=center;verticalAlign=top;childLayout=stackLayout;horizontal=1;startSize=26;horizontalStack=0;resizeParent=1;resizeParentMax=0;resizeLast=0;collapsible=1;marginBottom=0;fillColor=#ffe6cc;strokeColor=#d79b00;" vertex="1" parent="1">
          <mxGeometry x="-400" y="-360" width="270" height="148" as="geometry" />
        </mxCell>
        <mxCell id="oSaJBiBVaJiEjOHZTSxZ-6" value="# char _color ( &#39;W&#39;, &#39;B&#39;)&#xa;# unsigned int _loc[2]&#xa;# std::string _type&#xa;" style="text;strokeColor=none;fillColor=none;align=left;verticalAlign=top;spacingLeft=4;spacingRight=4;overflow=hidden;rotatable=0;points=[[0,0.5],[1,0.5]];portConstraint=eastwest;" vertex="1" parent="oSaJBiBVaJiEjOHZTSxZ-5">
          <mxGeometry y="26" width="270" height="54" as="geometry" />
        </mxCell>
        <mxCell id="oSaJBiBVaJiEjOHZTSxZ-7" value="" style="line;strokeWidth=1;fillColor=none;align=left;verticalAlign=middle;spacingTop=-1;spacingLeft=3;spacingRight=3;rotatable=0;labelPosition=right;points=[];portConstraint=eastwest;" vertex="1" parent="oSaJBiBVaJiEjOHZTSxZ-5">
          <mxGeometry y="80" width="270" height="8" as="geometry" />
        </mxCell>
        <mxCell id="oSaJBiBVaJiEjOHZTSxZ-8" value="# int check_valid(char** board, int[2] new_loc)&#xa;# Bishop ()&#xa;# ~Bishop ()" style="text;strokeColor=none;fillColor=none;align=left;verticalAlign=top;spacingLeft=4;spacingRight=4;overflow=hidden;rotatable=0;points=[[0,0.5],[1,0.5]];portConstraint=eastwest;" vertex="1" parent="oSaJBiBVaJiEjOHZTSxZ-5">
          <mxGeometry y="88" width="270" height="60" as="geometry" />
        </mxCell>
        <mxCell id="oSaJBiBVaJiEjOHZTSxZ-9" value="Pawn&#xa;" style="swimlane;fontStyle=1;align=center;verticalAlign=top;childLayout=stackLayout;horizontal=1;startSize=26;horizontalStack=0;resizeParent=1;resizeParentMax=0;resizeLast=0;collapsible=1;marginBottom=0;fillColor=#ffe6cc;strokeColor=#d79b00;" vertex="1" parent="1">
          <mxGeometry x="-110" y="-360" width="270" height="148" as="geometry" />
        </mxCell>
        <mxCell id="oSaJBiBVaJiEjOHZTSxZ-10" value="# char _color ( &#39;W&#39;, &#39;B&#39;)&#xa;# unsigned int _loc[2]&#xa;# std::string _type&#xa;" style="text;strokeColor=none;fillColor=none;align=left;verticalAlign=top;spacingLeft=4;spacingRight=4;overflow=hidden;rotatable=0;points=[[0,0.5],[1,0.5]];portConstraint=eastwest;" vertex="1" parent="oSaJBiBVaJiEjOHZTSxZ-9">
          <mxGeometry y="26" width="270" height="54" as="geometry" />
        </mxCell>
        <mxCell id="oSaJBiBVaJiEjOHZTSxZ-11" value="" style="line;strokeWidth=1;fillColor=none;align=left;verticalAlign=middle;spacingTop=-1;spacingLeft=3;spacingRight=3;rotatable=0;labelPosition=right;points=[];portConstraint=eastwest;" vertex="1" parent="oSaJBiBVaJiEjOHZTSxZ-9">
          <mxGeometry y="80" width="270" height="8" as="geometry" />
        </mxCell>
        <mxCell id="oSaJBiBVaJiEjOHZTSxZ-12" value="# int check_valid(char** board, int[2] new_loc)&#xa;# Pawn ()&#xa;# ~Pawn ()" style="text;strokeColor=none;fillColor=none;align=left;verticalAlign=top;spacingLeft=4;spacingRight=4;overflow=hidden;rotatable=0;points=[[0,0.5],[1,0.5]];portConstraint=eastwest;" vertex="1" parent="oSaJBiBVaJiEjOHZTSxZ-9">
          <mxGeometry y="88" width="270" height="60" as="geometry" />
        </mxCell>
        <mxCell id="oSaJBiBVaJiEjOHZTSxZ-13" value="Queen" style="swimlane;fontStyle=1;align=center;verticalAlign=top;childLayout=stackLayout;horizontal=1;startSize=26;horizontalStack=0;resizeParent=1;resizeParentMax=0;resizeLast=0;collapsible=1;marginBottom=0;fillColor=#ffe6cc;strokeColor=#d79b00;" vertex="1" parent="1">
          <mxGeometry x="-560" y="-180" width="270" height="148" as="geometry" />
        </mxCell>
        <mxCell id="oSaJBiBVaJiEjOHZTSxZ-14" value="# char _color ( &#39;W&#39;, &#39;B&#39;)&#xa;# unsigned int _loc[2]&#xa;# std::string _type&#xa;" style="text;strokeColor=none;fillColor=none;align=left;verticalAlign=top;spacingLeft=4;spacingRight=4;overflow=hidden;rotatable=0;points=[[0,0.5],[1,0.5]];portConstraint=eastwest;" vertex="1" parent="oSaJBiBVaJiEjOHZTSxZ-13">
          <mxGeometry y="26" width="270" height="54" as="geometry" />
        </mxCell>
        <mxCell id="oSaJBiBVaJiEjOHZTSxZ-15" value="" style="line;strokeWidth=1;fillColor=none;align=left;verticalAlign=middle;spacingTop=-1;spacingLeft=3;spacingRight=3;rotatable=0;labelPosition=right;points=[];portConstraint=eastwest;" vertex="1" parent="oSaJBiBVaJiEjOHZTSxZ-13">
          <mxGeometry y="80" width="270" height="8" as="geometry" />
        </mxCell>
        <mxCell id="oSaJBiBVaJiEjOHZTSxZ-16" value="# int check_valid(char** board, int[2] new_loc)&#xa;# Queen ()&#xa;# ~Queen ()" style="text;strokeColor=none;fillColor=none;align=left;verticalAlign=top;spacingLeft=4;spacingRight=4;overflow=hidden;rotatable=0;points=[[0,0.5],[1,0.5]];portConstraint=eastwest;" vertex="1" parent="oSaJBiBVaJiEjOHZTSxZ-13">
          <mxGeometry y="88" width="270" height="60" as="geometry" />
        </mxCell>
        <mxCell id="oSaJBiBVaJiEjOHZTSxZ-22" value="" style="endArrow=classic;html=1;exitX=0.818;exitY=0.009;exitDx=0;exitDy=0;exitPerimeter=0;" edge="1" parent="1" source="oSaJBiBVaJiEjOHZTSxZ-9">
          <mxGeometry width="50" height="50" relative="1" as="geometry">
            <mxPoint x="110" y="-470" as="sourcePoint" />
            <mxPoint x="110" y="-540" as="targetPoint" />
          </mxGeometry>
        </mxCell>
        <mxCell id="oSaJBiBVaJiEjOHZTSxZ-23" value="" style="endArrow=classic;html=1;exitX=0.818;exitY=0.009;exitDx=0;exitDy=0;exitPerimeter=0;entryX=-0.01;entryY=0.235;entryDx=0;entryDy=0;entryPerimeter=0;" edge="1" parent="1" target="PIh2nSRenUtLftdFd4x1-10">
          <mxGeometry width="50" height="50" relative="1" as="geometry">
            <mxPoint x="-409.1399999999999" y="-178.6679999999999" as="sourcePoint" />
            <mxPoint x="-350" y="-650" as="targetPoint" />
            <Array as="points">
              <mxPoint x="-409" y="-650" />
            </Array>
          </mxGeometry>
        </mxCell>
        <mxCell id="oSaJBiBVaJiEjOHZTSxZ-24" value="" style="endArrow=classic;html=1;exitX=0.818;exitY=0.009;exitDx=0;exitDy=0;exitPerimeter=0;" edge="1" parent="1">
          <mxGeometry width="50" height="50" relative="1" as="geometry">
            <mxPoint x="-549.1399999999999" y="-359.9979999999999" as="sourcePoint" />
            <mxPoint x="-130" y="-690" as="targetPoint" />
            <Array as="points">
              <mxPoint x="-550" y="-690" />
            </Array>
          </mxGeometry>
        </mxCell>
        <mxCell id="oSaJBiBVaJiEjOHZTSxZ-25" value="" style="endArrow=classic;html=1;exitX=0.818;exitY=0.009;exitDx=0;exitDy=0;exitPerimeter=0;" edge="1" parent="1" target="PIh2nSRenUtLftdFd4x1-10">
          <mxGeometry width="50" height="50" relative="1" as="geometry">
            <mxPoint x="600.8600000000001" y="-358.6679999999999" as="sourcePoint" />
            <mxPoint x="600" y="-540" as="targetPoint" />
            <Array as="points">
              <mxPoint x="600" y="-607" />
            </Array>
          </mxGeometry>
        </mxCell>
        <mxCell id="oSaJBiBVaJiEjOHZTSxZ-26" value="" style="endArrow=classic;html=1;exitX=0.818;exitY=0.009;exitDx=0;exitDy=0;exitPerimeter=0;" edge="1" parent="1">
          <mxGeometry width="50" height="50" relative="1" as="geometry">
            <mxPoint x="-264.5699999999999" y="-358.6679999999999" as="sourcePoint" />
            <mxPoint x="-140" y="-600" as="targetPoint" />
            <Array as="points">
              <mxPoint x="-270" y="-600" />
            </Array>
          </mxGeometry>
        </mxCell>
        <mxCell id="oSaJBiBVaJiEjOHZTSxZ-27" value="" style="endArrow=classic;html=1;exitX=0.818;exitY=0.009;exitDx=0;exitDy=0;exitPerimeter=0;entryX=1;entryY=0.75;entryDx=0;entryDy=0;" edge="1" parent="1" target="PIh2nSRenUtLftdFd4x1-7">
          <mxGeometry width="50" height="50" relative="1" as="geometry">
            <mxPoint x="325.4300000000001" y="-358.6679999999999" as="sourcePoint" />
            <mxPoint x="325" y="-600" as="targetPoint" />
            <Array as="points">
              <mxPoint x="325" y="-600" />
            </Array>
          </mxGeometry>
        </mxCell>
      </root>
    </mxGraphModel>
  </diagram>
</mxfile>
